{
  "page": 1,
  "total_results": 10000,
  "total_pages": 500,
  "results": [
    {
      "popularity": 333.4,
      "vote_count": 767,
      "poster_path": "/qdfARIhgpgZOBh3vfNhWS4hmSo3.jpg",
      "id": 330457,
      "backdrop_path": "/xJWPZIYOEFIjZpBL7SVBGnzRYXp.jpg",
      "original_language": "en",
      "original_title": "Frozen II",
      "genre_ids": [
        16,330457,
        10402,
        10751
      ],
      "title": "Frozen II",
      "vote_average": 7.1,
      "overview": "Elsa, Anna, Kristoff and Olaf head far into the forest to learn the truth about an ancient mystery of their kingdom.",
      "release_date": "2019-11-20"
    },
    {
      "popularity": 240.363,
      "vote_count": 1083,
      "poster_path": "/mbm8k3GFhXS0ROd9AD1gqYbIFbM.jpg",
      "id": 398978, 
      "backdrop_path": "/iLLDiO4dbUfFEnRug8DuvFEl1NB.jpg",
      "original_language": "en",
      "original_title": "The Irishman",
      "genre_ids": [
        80,
        18,
        36
      ],
      "title": "The Irishman",
      "vote_average": 8,
      "overview": "Pennsylvania, 1956. Frank Sheeran, a war veteran of Irish origin who works as a truck driver, accidentally meets mobster Russell Bufalino. Once Frank becomes his trusted man, Bufalino sends him to Chicago with the task of helping Jimmy Hoffa, a powerful union leader related to organized crime, with whom Frank will maintain a close friendship for nearly twenty years.",
      "release_date": "2019-11-01"
    },
    {
      "popularity": 246.497,
      "vote_count": 81,
      "poster_path": "/tmItDhOFsRgFlxX9VaWJEGfstJV.jpg",
      "id": 512200,
      "backdrop_path": "/zTxHf9iIOCqRbxvl8W5QYKrsMLq.jpg",
      "original_language": "en",
      "original_title": "Jumanji: The Next Level",
      "genre_ids": [
        28,
        12,
        35,
        14
      ],
      "title": "Jumanji: The Next Level",
      "vote_average": 7.2,
      "overview": "Spencer returns to the world of Jumanji, prompting his friends, his grandfather and his grandfather’s friend to enter a different and more dangerous version to save him.",
      "release_date": "2019-12-04"
    },
    {
      "popularity": 180.401,
      "vote_count": 688,
      "poster_path": "/kTQ3J8oTTKofAVLYnds2cHUz9KO.jpg",
      "id": 522938,
      "backdrop_path": "/spYx9XQFODuqEVoPpvaJI1ksAVt.jpg",
      "original_language": "en",
      "original_title": "Rambo: Last Blood",
      "genre_ids": [
        28,
        18,
        53
      ],
      "title": "Rambo: Last Blood",
      "vote_average": 5.9,
      "overview": "After fighting his demons for decades, John Rambo now lives in peace on his family ranch in Arizona, but his rest is interrupted when Gabriela, the granddaughter of his housekeeper María, disappears after crossing the border into Mexico to meet her biological father. Rambo, who has become a true father figure for Gabriela over the years, undertakes a desperate and dangerous journey to find her.",
      "release_date": "2019-09-19"
    },
    {
      "popularity": 159.662,
      "vote_count": 6247,
      "poster_path": "/udDclJoHjfjb8Ekgsd4FDteOkCU.jpg",
      "id": 475557,
      "backdrop_path": "/n6bUvigpRFqSwmPp1m2YADdbRBc.jpg",
      "original_language": "en",
      "original_title": "Joker",
      "genre_ids": [
        80,
        18,
        53
      ],
      "title": "Joker",
      "vote_average": 8.4,
      "overview": "During the 1980s, a failed stand-up comedian is driven insane and turns to a life of crime and chaos in Gotham City while becoming an infamous psychopathic crime figure.",
      "release_date": "2019-10-02"
    },
    {
      "popularity": 158.392,
      "vote_count": 1045,
      "poster_path": "/xJUILftRf6TJxloOgrilOTJfeOn.jpg",
      "id": 419704,
      "backdrop_path": "/p3TCqUDoVsrIm8fHK9KOTfWnDjZ.jpg",
      "original_language": "en",
      "original_title": "Ad Astra",
      "genre_ids": [
        878
      ],
      "title": "Ad Astra",
      "vote_average": 6.1,
      "overview": "An astronaut travels to the outer edges of the solar system to find his father and unravel a mystery that threatens the survival of Earth. In doing so, he uncovers secrets which challenge the nature of human existence and our place in the cosmos.",
      "release_date": "2019-09-17"
    },
    {
      "popularity": 147.907,
      "vote_count": 0,
      "poster_path": "/vn94LlNrbUWIZZyAdmvUepFBeaY.jpg",
      "id": 449924,
      "backdrop_path": "/ekP6EVxL81lZ4ivcqPsoZ72rY0h.jpg",
      "original_language": "cn",
      "original_title": "葉問4",
      "genre_ids": [
        28,
        18,
        36
      ],
      "title": "Ip Man 4: The Finale",
      "vote_average": 0,
      "overview": "Ip Man 4 is an upcoming Hong Kong biographical martial arts film directed by Wilson Yip and produced by Raymond Wong. It is the fourth in the Ip Man film series based on the life of the Wing Chun grandmaster of the same name and features Donnie Yen reprising the role. The film began production in April 2018 and ended in July the same year.",
      "release_date": "2019-12-20"
    },
    {
      "popularity": 138.537,
      "vote_count": 2345,
      "poster_path": "/zfE0R94v1E8cuKAerbskfD3VfUt.jpg",
      "id": 474350,
      "backdrop_path": "/8moTOzunF7p40oR5XhlDvJckOSW.jpg",
      "original_language": "en",
      "original_title": "It Chapter Two",
      "genre_ids": [
        18,
        27
      ],
      "title": "It Chapter Two",
      "vote_average": 6.8,
      "overview": "27 years after overcoming the malevolent supernatural entity Pennywise, the former members of the Losers' Club, who have grown up and moved away from Derry, are brought back together by a devastating phone call.",
      "release_date": "2019-09-04"
    },
    {
      "popularity": 125.748,
      "vote_count": 3062,
      "poster_path": "/8j58iEBw9pOXFD2L0nt0ZXeHviB.jpg",
      "id": 466272,
      "backdrop_path": "/aQLygZOIKai6aaiBAeeKpIWO5nc.jpg",
      "original_language": "en",
      "original_title": "Once Upon a Time… in Hollywood",
      "genre_ids": [
        35,
        18,
        53
      ],
      "title": "Once Upon a Time… in Hollywood",
      "vote_average": 7.5,
      "overview": "Los Angeles, 1969. TV star Rick Dalton, a struggling actor specialized in westerns, and stuntman Cliff Booth, his best friend, try to survive to a constantly changing movie industry. Dalton is neighbor of the young and promising actress and model Sharon Tate, who has just married the prestigious Polish director Roman Polanski…",
      "release_date": "2019-07-25"
    },
    {
      "popularity": 129.042,
      "vote_count": 775,
      "poster_path": "/vqzNJRH4YyquRiWxCCOH0aXggHI.jpg",
      "id": 290859,
      "backdrop_path": "/riTANvQ8GKmQbgtC1ps3OfkU43A.jpg",
      "original_language": "en",
      "original_title": "Terminator: Dark Fate",
      "genre_ids": [
        28,
        878
      ],
      "title": "Terminator: Dark Fate",
      "vote_average": 6.3,
      "overview": "Decades after Sarah Connor prevented Judgment Day, a lethal new Terminator is sent to eliminate the future leader of the resistance. In a fight to save mankind, battle-hardened Sarah Connor teams up with an unexpected ally and an enhanced super soldier to stop the deadliest Terminator yet.",
      "release_date": "2019-10-23"
    }
  ]
}